Gentrification
…
## Warning: Expected 2 pieces. Missing pieces filled with `NA` in 3 rows [440,
## 546, 714].

# Print results
if (exists("q3.1")) q3.1

## Simple feature collection with 4762 features and 26 fields
## geometry type:  POINT
## dimension:      XY
## bbox:           xmin: -122.5094 ymin: 37.70807 xmax: -122.2806 ymax: 37.82428
## epsg (SRID):    NA
## proj4string:    NA
## # A tibble: 4,762 x 27
##    neighborhood date       units net_units description       zoning     sf
##    <chr>        <date>     <int>     <int> <chr>             <chr>   <dbl>
##  1 Northeast    2012-10-31     9         9 <NA>              RM-1   0.    
##  2 Northeast    2012-07-12     0         0 Hospital Replace CRNC   1.41e5
##  3 Downtown     2009-04-08   165       165 THC/Citizens Hou C-3-G  3.64e3
##  4 Northeast    2013-04-26     3         1 Two-floor vertic RM-3   0.    
##  5 Downtown     2013-02-28     7         4 Interior structu RC-4   1.25e4
##  6 Downtown     2010-07-13     0        NA Expansion of SFM C-3-S  2.98e5
##  7 Richmond     2009-05-28     2         1 <NA>              RH-2   0.    
##  8 Northeast    2012-06-19   170       170 The proposed pro RC-4   3.21e4
##  9 Northeast    2013-04-24     1         1 Demolition of an C-2    5.59e3
## 10 Northeast    2011-06-08    20        20 Remove office, n C-2    6.50e3
## # ... with 4,752 more rows, and 20 more variables: net_sf <dbl>,
## #   office <dbl>, net_office <int>, cie <int>, net_cie <int>,
## #   medical <int>, net_medical <int>, pdr <dbl>, net_pdr <dbl>,
## #   retail <dbl>, net_retail <dbl>, visitor <int>, net_visitor <int>,
## #   type <chr>, address <chr>, year <int>, quarter <int>, aff_units <int>,
## #   net_aff_units <int>, geometry <POINT>
…
